<?xml version="1.0" encoding="UTF-8" standalone="no"?>
<!-- Created with Inkscape (http://www.inkscape.org/) -->

<svg
   width="1800mm"
   height="1200mm"
   viewBox="0 0 1800 1199.999"
   version="1.1"
   id="svg8896"
   inkscape:version="1.2.2 (b0a8486541, 2022-12-01)"
   sodipodi:docname="flag_3:2_aspect.svg"
   inkscape:export-filename="../../../flags/flag_3:2_aspect.png"
   inkscape:export-xdpi="338.66669"
   inkscape:export-ydpi="338.66669"
   xmlns:inkscape="http://www.inkscape.org/namespaces/inkscape"
   xmlns:sodipodi="http://sodipodi.sourceforge.net/DTD/sodipodi-0.dtd"
   xmlns:xlink="http://www.w3.org/1999/xlink"
   xmlns="http://www.w3.org/2000/svg"
   xmlns:svg="http://www.w3.org/2000/svg">
  <sodipodi:namedview
     id="namedview8898"
     pagecolor="#ffffff"
     bordercolor="#000000"
     borderopacity="0.25"
     inkscape:showpageshadow="2"
     inkscape:pageopacity="0.0"
     inkscape:pagecheckerboard="0"
     inkscape:deskcolor="#d1d1d1"
     inkscape:document-units="mm"
     showgrid="false"
     inkscape:zoom="0.18308645"
     inkscape:cx="3055.9334"
     inkscape:cy="2244.8411"
     inkscape:window-width="1866"
     inkscape:window-height="1011"
     inkscape:window-x="0"
     inkscape:window-y="0"
     inkscape:window-maximized="1"
     inkscape:current-layer="layer1" />
  <defs
     id="defs8893">
    <linearGradient
       inkscape:collect="always"
       xlink:href="#linearGradient18181"
       id="linearGradient18183"
       x1="11.612799"
       y1="85.567169"
       x2="202.33652"
       y2="85.567169"
       gradientUnits="userSpaceOnUse"
       gradientTransform="matrix(9.4377348,0,0,1.5603741,-109.59845,2.169071)" />
    <linearGradient
       inkscape:collect="always"
       id="linearGradient18181">
      <stop
         style="stop-color:#5075d4;stop-opacity:1;"
         offset="0"
         id="stop18177" />
      <stop
         style="stop-color:#c7ddff;stop-opacity:1;"
         offset="0.29263991"
         id="stop19703" />
      <stop
         style="stop-color:#5a7edc;stop-opacity:1;"
         offset="1"
         id="stop18179" />
    </linearGradient>
    <linearGradient
       inkscape:collect="always"
       xlink:href="#linearGradient18170"
       id="linearGradient13634"
       x1="9.1182728"
       y1="200.58791"
       x2="202.83662"
       y2="200.58791"
       gradientUnits="userSpaceOnUse"
       spreadMethod="pad" />
    <linearGradient
       id="linearGradient18170">
      <stop
         style="stop-color:#03369a;stop-opacity:1;"
         offset="0"
         id="stop18164" />
      <stop
         style="stop-color:#f89637;stop-opacity:1;"
         offset="0.34555364"
         id="stop18166" />
      <stop
         style="stop-color:#3733ac;stop-opacity:1;"
         offset="1"
         id="stop18168" />
    </linearGradient>
    <linearGradient
       inkscape:collect="always"
       xlink:href="#linearGradient10378"
       id="linearGradient16710"
       gradientUnits="userSpaceOnUse"
       x1="9.1182728"
       y1="200.58791"
       x2="202.83662"
       y2="200.58791"
       spreadMethod="pad"
       gradientTransform="translate(-1.4767989e-7,0.31806736)" />
    <linearGradient
       id="linearGradient10378">
      <stop
         style="stop-color:#03369a;stop-opacity:1;"
         offset="0"
         id="stop10382" />
      <stop
         style="stop-color:#f89637;stop-opacity:1;"
         offset="0.15137714"
         id="stop14914" />
      <stop
         style="stop-color:#3733ac;stop-opacity:1;"
         offset="1"
         id="stop10384" />
    </linearGradient>
    <clipPath
       clipPathUnits="userSpaceOnUse"
       id="clipPath23935">
      <rect
         style="opacity:1;fill:#ffffff;stroke-width:2.4189"
         id="rect23937"
         width="715.50269"
         height="650.89545"
         x="164.14348"
         y="-33.184998" />
    </clipPath>
    <clipPath
       clipPathUnits="userSpaceOnUse"
       id="clipPath9717">
      <rect
         style="opacity:1;fill:#ffffff;stroke-width:2.4189"
         id="rect9715"
         width="715.50269"
         height="650.89545"
         x="164.14348"
         y="-33.184998" />
    </clipPath>
    <clipPath
       clipPathUnits="userSpaceOnUse"
       id="clipPath23943">
      <rect
         style="opacity:1;fill:#ffffff;stroke-width:0.640001"
         id="rect23945"
         width="189.31009"
         height="172.21608"
         x="12.169035"
         y="62.90519" />
    </clipPath>
    <radialGradient
       inkscape:collect="always"
       xlink:href="#linearGradient2039"
       id="radialGradient2041-3"
       cx="169.60727"
       cy="33.920143"
       fx="169.60727"
       fy="33.920143"
       r="31.594152"
       gradientUnits="userSpaceOnUse"
       gradientTransform="matrix(-0.00675649,1.4512232,-1.5056798,-0.00701192,59.290895,-163.73521)" />
    <linearGradient
       inkscape:collect="always"
       id="linearGradient2039">
      <stop
         style="stop-color:#ffffff;stop-opacity:0.97998977;"
         offset="0"
         id="stop2035" />
      <stop
         style="stop-color:#ffffff;stop-opacity:0;"
         offset="1"
         id="stop2037" />
    </linearGradient>
    <clipPath
       clipPathUnits="userSpaceOnUse"
       id="clipPath23947">
      <rect
         style="opacity:1;fill:#ffffff;stroke-width:0.640001"
         id="rect23949"
         width="189.31009"
         height="172.21608"
         x="12.169035"
         y="62.90519" />
    </clipPath>
    <clipPath
       clipPathUnits="userSpaceOnUse"
       id="clipPath23955">
      <rect
         style="opacity:1;fill:#ffffff;stroke-width:0.640001"
         id="rect23957"
         width="189.31009"
         height="172.21608"
         x="12.169035"
         y="62.90519" />
    </clipPath>
    <clipPath
       clipPathUnits="userSpaceOnUse"
       id="clipPath23959">
      <rect
         style="opacity:1;fill:#ffffff;stroke-width:0.640001"
         id="rect23961"
         width="189.31009"
         height="172.21608"
         x="12.169035"
         y="62.90519" />
    </clipPath>
  </defs>
  <g
     inkscape:label="Layer 1"
     inkscape:groupmode="layer"
     id="layer1">
    <path
       id="rect1549"
       style="fill:#5a7edc;stroke-width:1.24784"
       d="M 10.222881,60.833218 H 202.98849 V 236.75227 H 10.222881 Z"
       clip-path="url(#clipPath23959)"
       transform="matrix(9.5082096,0,0,6.9679905,-115.70573,-438.32277)" />
    <rect
       style="fill:#3733ac;fill-opacity:1;stroke-width:1.69111"
       id="rect1288"
       width="192.79349"
       height="23.059877"
       x="10.224485"
       y="213.98361"
       clip-path="url(#clipPath23955)"
       transform="matrix(9.5082095,0,0,6.3023167,-115.70573,-282.06725)" />
    <path
       id="path1864-5"
       style="opacity:0.728331;fill:url(#radialGradient2041-3);stroke-width:1.56278"
       d="M 59.517126,88.889442 A 51.600311,51.600311 0 0 1 7.9168143,140.48975 51.600311,51.600311 0 0 1 -43.683497,88.889442 51.600311,51.600311 0 0 1 7.9168143,37.289131 51.600311,51.600311 0 0 1 59.517126,88.889442 Z"
       clip-path="url(#clipPath23947)"
       transform="matrix(6.6608105,0,0,5.6710704,-81.055636,-329.17405)" />
    <rect
       style="fill:#00309c;fill-opacity:1;stroke-width:1.45608"
       id="rect1286"
       width="192.40759"
       height="21.49416"
       x="10.47482"
       y="60.866131"
       clip-path="url(#clipPath23943)"
       transform="matrix(9.5082096,0,0,6.8473665,-115.70573,-430.73489)" />
    <g
       id="g7288"
       transform="matrix(9.3835907,0,0,9.3835907,-154.60976,-747.65199)">
      <g
         aria-label="welcome"
         transform="matrix(0.26458333,0,0,0.26458333,-40.002956,68.969785)"
         id="text21205"
         clip-path="url(#clipPath23935)"
         style="font-size:42.6667px;font-family:'Latin Modern Sans Quotation';-inkscape-font-specification:'Latin Modern Sans Quotation';text-align:center;white-space:pre;shape-inside:url(#rect21207);display:inline;opacity:1;fill:#3151b5;stroke-width:2.4189">
        <path
           d="m 504.83394,298.61624 h -5.62501 l -1.08333,-14.08334 -6.75001,14.08334 h -5.54167 l -2.77083,-22.12502 h 5.3125 l 1.54167,14.83335 6.89584,-14.83335 h 5.4375 l 0.75,14.83335 6.85417,-14.83335 h 6.00001 z"
           style="font-family:Arial;-inkscape-font-specification:Arial"
           id="path7290" />
        <path
           d="m 536.43812,289.4079 h -15.00001 q -0.0208,0.35417 -0.0208,0.54167 0,2.20833 1.25,3.5625 1.27083,1.35417 3.08334,1.35417 2.97917,0 4.64583,-3.08334 l 5.35417,0.89584 q -1.5625,3.22916 -4.1875,4.85417 -2.60417,1.60416 -5.85417,1.60416 -4.45834,0 -7.25001,-2.8125 -2.79166,-2.83333 -2.79166,-7.47917 0,-4.54167 2.52083,-8.08334 3.4375,-4.79167 9.81251,-4.79167 4.0625,0 6.45834,2.52083 2.39583,2.50001 2.39583,7.02084 0,2.16667 -0.41667,3.89584 z m -5.04167,-3.64584 q 0.0208,-0.39583 0.0208,-0.60416 0,-2.45834 -1.10417,-3.68751 -1.10417,-1.22916 -2.95834,-1.22916 -1.85416,0 -3.33333,1.39583 -1.45834,1.39583 -1.97917,4.125 z"
           style="font-family:Arial;-inkscape-font-specification:Arial"
           id="path7292" />
        <path
           d="m 538.58396,298.61624 6.39584,-30.54169 h 5.95834 l -6.37501,30.54169 z"
           style="font-family:Arial;-inkscape-font-specification:Arial"
           id="path7294" />
        <path
           d="m 565.47981,290.2829 5.81251,0.9375 q -1.43751,3.875 -4.25001,5.89584 -2.8125,2.02083 -6.52084,2.02083 -4.22917,0 -6.70833,-2.52083 -2.47917,-2.52084 -2.47917,-6.93751 0,-3.60417 1.5,-6.8125 1.5,-3.20834 4.52084,-5.04167 3.02083,-1.85417 6.625,-1.85417 3.91667,0 6.25,2.04167 2.33334,2.04167 2.62501,5.375 l -5.68751,0.60417 q -0.20833,-1.85417 -1.14583,-2.72917 -0.91667,-0.875 -2.41667,-0.875 -1.72917,0 -3.22917,1.29167 -1.5,1.29166 -2.3125,3.875 -0.79167,2.5625 -0.79167,4.8125 0,1.95834 0.95834,3.02084 0.95833,1.0625 2.39583,1.0625 1.4375,0 2.77084,-1.04167 1.33333,-1.04166 2.08333,-3.125 z"
           style="font-family:Arial;-inkscape-font-specification:Arial"
           id="path7296" />
        <path
           d="m 575.08399,289.42873 q 0,-6.14584 3.45833,-9.79167 3.47917,-3.66667 9.12501,-3.66667 4.89584,0 7.64584,2.70833 2.75,2.68751 2.75,7.25001 0,5.375 -3.4375,9.29167 -3.4375,3.91667 -9.20834,3.91667 -3.125,0 -5.54167,-1.25 -2.41667,-1.25 -3.60417,-3.54167 -1.1875,-2.29167 -1.1875,-4.91667 z m 17.04168,-4.27083 q 0,-2.12501 -1.25,-3.39584 -1.22917,-1.29167 -3.18751,-1.29167 -1.9375,0 -3.4375,1.20834 -1.5,1.1875 -2.33333,3.47917 -0.83334,2.27083 -0.83334,4.1875 0,2.375 1.29167,3.77084 1.29167,1.39583 3.25,1.39583 2.45834,0 4.12501,-2.10417 2.375,-2.97917 2.375,-7.25 z"
           style="font-family:Arial;-inkscape-font-specification:Arial"
           id="path7298" />
        <path
           d="m 604.70901,276.49122 h 5.62501 l -0.5625,2.68751 q 3.29167,-3.20834 6.91667,-3.20834 2.5,0 3.85417,1.04167 1.35417,1.04166 1.72917,2.875 1.14583,-1.66667 3.29167,-2.79167 2.14583,-1.125 4.45833,-1.125 2.64584,0 4.12501,1.41667 1.47916,1.41666 1.47916,3.75 0,1.14583 -0.58333,3.95834 l -2.83334,13.52084 h -5.97917 l 2.83334,-13.52084 q 0.52083,-2.54167 0.52083,-2.87501 0,-0.91666 -0.5625,-1.4375 -0.54167,-0.54166 -1.64583,-0.54166 -2.22917,0 -3.97917,2.35416 -1.27084,1.68751 -2.16667,5.97918 l -2.10417,10.04167 h -5.97917 l 2.79167,-13.37501 q 0.47917,-2.3125 0.47917,-3 0,-0.875 -0.60417,-1.4375 -0.58334,-0.5625 -1.625,-0.5625 -0.97917,0 -2.02084,0.58333 -1.04167,0.58333 -1.83333,1.60417 -0.77084,1.02083 -1.33334,2.625 -0.25,0.75 -0.8125,3.39584 l -2.125,10.16667 h -5.97917 z"
           style="font-family:Arial;-inkscape-font-specification:Arial"
           id="path7300" />
        <path
           d="m 659.75072,289.4079 h -15.00001 q -0.0208,0.35417 -0.0208,0.54167 0,2.20833 1.25,3.5625 1.27083,1.35417 3.08334,1.35417 2.97916,0 4.64583,-3.08334 l 5.35417,0.89584 q -1.5625,3.22916 -4.1875,4.85417 -2.60417,1.60416 -5.85417,1.60416 -4.45834,0 -7.25001,-2.8125 -2.79167,-2.83333 -2.79167,-7.47917 0,-4.54167 2.52084,-8.08334 3.4375,-4.79167 9.81251,-4.79167 4.0625,0 6.45834,2.52083 2.39583,2.50001 2.39583,7.02084 0,2.16667 -0.41667,3.89584 z m -5.04167,-3.64584 q 0.0208,-0.39583 0.0208,-0.60416 0,-2.45834 -1.10417,-3.68751 -1.10417,-1.22916 -2.95834,-1.22916 -1.85416,0 -3.33333,1.39583 -1.45834,1.39583 -1.97917,4.125 z"
           style="font-family:Arial;-inkscape-font-specification:Arial"
           id="path7302" />
      </g>
      <g
         aria-label="welcome"
         transform="matrix(0.26458333,0,0,0.26458333,-40.421861,68.42902)"
         id="text4643"
         clip-path="url(#clipPath23935)"
         style="font-size:42.6667px;font-family:'Latin Modern Sans Quotation';-inkscape-font-specification:'Latin Modern Sans Quotation';text-align:center;white-space:pre;shape-inside:url(#rect4645);display:inline;opacity:1;fill:#eff7ff;stroke-width:2.4189">
        <path
           d="m 504.83394,298.61624 h -5.62501 l -1.08333,-14.08334 -6.75001,14.08334 h -5.54167 l -2.77083,-22.12502 h 5.3125 l 1.54167,14.83335 6.89584,-14.83335 h 5.4375 l 0.75,14.83335 6.85417,-14.83335 h 6.00001 z"
           style="font-family:Arial;-inkscape-font-specification:Arial"
           id="path7305" />
        <path
           d="m 536.43812,289.4079 h -15.00001 q -0.0208,0.35417 -0.0208,0.54167 0,2.20833 1.25,3.5625 1.27083,1.35417 3.08334,1.35417 2.97917,0 4.64583,-3.08334 l 5.35417,0.89584 q -1.5625,3.22916 -4.1875,4.85417 -2.60417,1.60416 -5.85417,1.60416 -4.45834,0 -7.25001,-2.8125 -2.79166,-2.83333 -2.79166,-7.47917 0,-4.54167 2.52083,-8.08334 3.4375,-4.79167 9.81251,-4.79167 4.0625,0 6.45834,2.52083 2.39583,2.50001 2.39583,7.02084 0,2.16667 -0.41667,3.89584 z m -5.04167,-3.64584 q 0.0208,-0.39583 0.0208,-0.60416 0,-2.45834 -1.10417,-3.68751 -1.10417,-1.22916 -2.95834,-1.22916 -1.85416,0 -3.33333,1.39583 -1.45834,1.39583 -1.97917,4.125 z"
           style="font-family:Arial;-inkscape-font-specification:Arial"
           id="path7307" />
        <path
           d="m 538.58396,298.61624 6.39584,-30.54169 h 5.95834 l -6.37501,30.54169 z"
           style="font-family:Arial;-inkscape-font-specification:Arial"
           id="path7309" />
        <path
           d="m 565.47981,290.2829 5.81251,0.9375 q -1.43751,3.875 -4.25001,5.89584 -2.8125,2.02083 -6.52084,2.02083 -4.22917,0 -6.70833,-2.52083 -2.47917,-2.52084 -2.47917,-6.93751 0,-3.60417 1.5,-6.8125 1.5,-3.20834 4.52084,-5.04167 3.02083,-1.85417 6.625,-1.85417 3.91667,0 6.25,2.04167 2.33334,2.04167 2.62501,5.375 l -5.68751,0.60417 q -0.20833,-1.85417 -1.14583,-2.72917 -0.91667,-0.875 -2.41667,-0.875 -1.72917,0 -3.22917,1.29167 -1.5,1.29166 -2.3125,3.875 -0.79167,2.5625 -0.79167,4.8125 0,1.95834 0.95834,3.02084 0.95833,1.0625 2.39583,1.0625 1.4375,0 2.77084,-1.04167 1.33333,-1.04166 2.08333,-3.125 z"
           style="font-family:Arial;-inkscape-font-specification:Arial"
           id="path7311" />
        <path
           d="m 575.08399,289.42873 q 0,-6.14584 3.45833,-9.79167 3.47917,-3.66667 9.12501,-3.66667 4.89584,0 7.64584,2.70833 2.75,2.68751 2.75,7.25001 0,5.375 -3.4375,9.29167 -3.4375,3.91667 -9.20834,3.91667 -3.125,0 -5.54167,-1.25 -2.41667,-1.25 -3.60417,-3.54167 -1.1875,-2.29167 -1.1875,-4.91667 z m 17.04168,-4.27083 q 0,-2.12501 -1.25,-3.39584 -1.22917,-1.29167 -3.18751,-1.29167 -1.9375,0 -3.4375,1.20834 -1.5,1.1875 -2.33333,3.47917 -0.83334,2.27083 -0.83334,4.1875 0,2.375 1.29167,3.77084 1.29167,1.39583 3.25,1.39583 2.45834,0 4.12501,-2.10417 2.375,-2.97917 2.375,-7.25 z"
           style="font-family:Arial;-inkscape-font-specification:Arial"
           id="path7313" />
        <path
           d="m 604.70901,276.49122 h 5.62501 l -0.5625,2.68751 q 3.29167,-3.20834 6.91667,-3.20834 2.5,0 3.85417,1.04167 1.35417,1.04166 1.72917,2.875 1.14583,-1.66667 3.29167,-2.79167 2.14583,-1.125 4.45833,-1.125 2.64584,0 4.12501,1.41667 1.47916,1.41666 1.47916,3.75 0,1.14583 -0.58333,3.95834 l -2.83334,13.52084 h -5.97917 l 2.83334,-13.52084 q 0.52083,-2.54167 0.52083,-2.87501 0,-0.91666 -0.5625,-1.4375 -0.54167,-0.54166 -1.64583,-0.54166 -2.22917,0 -3.97917,2.35416 -1.27084,1.68751 -2.16667,5.97918 l -2.10417,10.04167 h -5.97917 l 2.79167,-13.37501 q 0.47917,-2.3125 0.47917,-3 0,-0.875 -0.60417,-1.4375 -0.58334,-0.5625 -1.625,-0.5625 -0.97917,0 -2.02084,0.58333 -1.04167,0.58333 -1.83333,1.60417 -0.77084,1.02083 -1.33334,2.625 -0.25,0.75 -0.8125,3.39584 l -2.125,10.16667 h -5.97917 z"
           style="font-family:Arial;-inkscape-font-specification:Arial"
           id="path7315" />
        <path
           d="m 659.75072,289.4079 h -15.00001 q -0.0208,0.35417 -0.0208,0.54167 0,2.20833 1.25,3.5625 1.27083,1.35417 3.08334,1.35417 2.97916,0 4.64583,-3.08334 l 5.35417,0.89584 q -1.5625,3.22916 -4.1875,4.85417 -2.60417,1.60416 -5.85417,1.60416 -4.45834,0 -7.25001,-2.8125 -2.79167,-2.83333 -2.79167,-7.47917 0,-4.54167 2.52084,-8.08334 3.4375,-4.79167 9.81251,-4.79167 4.0625,0 6.45834,2.52083 2.39583,2.50001 2.39583,7.02084 0,2.16667 -0.41667,3.89584 z m -5.04167,-3.64584 q 0.0208,-0.39583 0.0208,-0.60416 0,-2.45834 -1.10417,-3.68751 -1.10417,-1.22916 -2.95834,-1.22916 -1.85416,0 -3.33333,1.39583 -1.45834,1.39583 -1.97917,4.125 z"
           style="font-family:Arial;-inkscape-font-specification:Arial"
           id="path7317" />
      </g>
    </g>
    <g
       id="g10414"
       transform="matrix(9.2916506,0,0,0.38696898,-84.723805,985.47787)"
       style="fill:url(#linearGradient13634);fill-opacity:1;fill-rule:nonzero">
      <rect
         style="fill:url(#linearGradient16710);fill-opacity:1;fill-rule:nonzero;stroke-width:0.640001"
         id="rect10411"
         width="193.71835"
         height="17.425291"
         x="9.1182728"
         y="192.19333" />
    </g>
    <rect
       style="fill:url(#linearGradient18183);fill-opacity:1;fill-rule:nonzero;stroke-width:2.456"
       id="rect18175"
       width="1800"
       height="6.7407398"
       x="-1.7763568e-15"
       y="132.31546" />
  </g>
</svg>
