<?xml version="1.0" encoding="UTF-8" standalone="no"?>
<!-- Created with Inkscape (http://www.inkscape.org/) -->

<svg
   width="147.7027mm"
   height="147.7027mm"
   viewBox="0 0 147.7027 147.7027"
   version="1.1"
   id="svg729"
   inkscape:version="1.2.2 (b0a8486541, 2022-12-01)"
   sodipodi:docname="vax_button_pin.svg"
   xml:space="preserve"
   xmlns:inkscape="http://www.inkscape.org/namespaces/inkscape"
   xmlns:sodipodi="http://sodipodi.sourceforge.net/DTD/sodipodi-0.dtd"
   xmlns="http://www.w3.org/2000/svg"
   xmlns:svg="http://www.w3.org/2000/svg"><sodipodi:namedview
     id="namedview731"
     pagecolor="#ffffff"
     bordercolor="#000000"
     borderopacity="0.25"
     inkscape:showpageshadow="2"
     inkscape:pageopacity="0.0"
     inkscape:pagecheckerboard="0"
     inkscape:deskcolor="#d1d1d1"
     inkscape:document-units="mm"
     showgrid="false"
     inkscape:zoom="1.4878186"
     inkscape:cx="274.8991"
     inkscape:cy="288.3416"
     inkscape:window-width="1499"
     inkscape:window-height="991"
     inkscape:window-x="26"
     inkscape:window-y="23"
     inkscape:window-maximized="0"
     inkscape:current-layer="layer1" /><defs
     id="defs726"><rect
       x="195.33972"
       y="507.65106"
       width="323.82947"
       height="168.23325"
       id="rect12060" /></defs><g
     inkscape:label="Layer 1"
     inkscape:groupmode="layer"
     id="layer1"
     transform="translate(-23.911167,-46.962277)"><circle
       style="fill:#0365a6;fill-opacity:1;stroke-width:14.6"
       id="path921"
       cx="-119.97392"
       cy="-98.791191"
       r="73.851349"
       transform="matrix(0.0085441,-0.9999635,-0.9999635,-0.0085441,0,0)" /><path
       id="path1856"
       d="m 64.831248,113.56622 -11.988809,20.94371 h 4.550121 l 2.157054,-3.76791 h 8.94536 l -2.171386,3.76791 h 4.624251 l 0.789914,-1.37071 1.213436,-2.10563 2.045101,-3.54868 4.196808,7.02495 h 4.72212 l -6.600445,-11.0483 5.646232,-9.79754 h -4.62425 l -3.3757,5.85763 -3.499507,-5.85763 h -4.722121 l 5.903137,9.88098 -0.930869,1.61528 z m 0.0044,7.94246 3.127369,5.26969 h -6.144192 z"
       style="fill:#ffffff;stroke-width:0.0244669" /><path
       id="path907"
       d="m 37.526094,113.66412 12.943016,21.60431 12.478146,-21.60431 h -4.585107 l -7.941972,13.75042 -8.237778,-13.75042 z"
       style="fill:#ffffff;stroke-width:0.0244669" /><g
       style="display:inline;fill:#ffffff"
       id="layer2"
       transform="matrix(0.0317358,0,0,0.0317358,63.662399,62.979262)"><path
         d="M 0,0 H 272 V 538 H 0 Z m 134.18343,421.08096 c 17.72848,-4.53418 32.77292,-14.20707 45.12136,-29.01096 L 183,387.64 V 418 h 54 V 118 h -58 v 107.32812 l -6.75,-6.47541 c -18.62356,-17.86595 -37.91744,-24.63208 -64.75,-22.70702 -11.619843,0.83365 -20.065307,3.04781 -30,7.86516 -29.014786,14.06931 -47.034743,42.48541 -51.592862,81.35801 -1.742871,14.86358 -0.633673,46.55091 2.067858,59.07409 2.590749,12.00964 7.573397,25.2426 12.927934,34.33411 12.142936,20.61761 32.712668,36.6546 54.09707,42.17625 10.42555,2.69197 28.92144,2.75223 39.18343,0.12765 z M 118.28604,375.59287 C 107.69564,372.17349 96.939625,362.3616 91.874888,351.5 81.562446,329.38442 81.441676,287.06655 91.631345,266.16187 95.545753,258.13124 104.94333,248.64552 112.83285,244.76152 119.20032,241.62683 119.92622,241.5 131.5,241.5 c 11.57378,0 12.29968,0.12683 18.66715,3.26152 9.1617,4.5103 17.53329,13.56344 21.61491,23.37465 7.43792,17.87894 9.10671,49.38722 3.72673,70.36383 -4.03827,15.74522 -13.6597,28.49242 -26.15238,34.64861 -6.18241,3.04659 -7.71294,3.37201 -16.82867,3.57812 -6.32957,0.14311 -11.58182,-0.27505 -14.2417,-1.13386 z M 313,0 H 585 V 538 H 313 Z m 165.5,200.5 h -58 L 419.99111,418 h 59.01778 z m 0,-82 h -58 l -0.53267,53.5 h 59.06534 z M 625,0 H 898 V 538 H 625 Z m 170.5,503.57624 c 33.14062,-7.65089 51.24653,-22.43864 60.36765,-49.30445 6.34681,-18.69424 7.27485,-39.99358 6.91787,-158.77179 L 862.5,200.5 808,199.96786 v 29.27561 l -6.63808,-7.16974 c -11.29681,-12.2016 -24.6366,-20.42969 -39.16635,-24.15813 -8.70766,-2.23445 -27.78943,-2.71254 -37.19557,-0.93192 -17.95116,3.39822 -33.36368,12.16593 -47.07856,26.78155 -11.86009,12.63901 -19.84346,29.06238 -24.419,50.23477 -2.22698,10.30486 -3.14675,42.84309 -1.56605,55.4012 5.753,45.70572 32.82199,79.59575 69.66053,87.21412 12.19568,2.52212 32.47878,1.57008 42.89348,-2.01332 13.32812,-4.58582 26.21596,-13.53028 35.40472,-24.5717 l 4.83759,-5.81295 -0.39686,20.64133 c -0.55737,28.99011 -0.93874,32.19618 -4.69564,39.47502 -2.34979,4.5526 -4.45317,7.01909 -8.0375,9.42501 C 783.30527,459.32822 777.63821,460.5 759,460.5 c -16.33564,0 -16.55966,-0.0299 -22.48962,-3 -6.53826,-3.27479 -9.08252,-6.59282 -11.07216,-14.43944 L 724.28181,438.5 657.71277,432 l 0.59168,10.25 c 0.93778,16.24564 5.4594,27.13267 15.9367,38.37193 12.9082,13.84695 28.3613,20.59264 55.75885,24.34023 10.85909,1.48536 57.32111,0.50227 65.5,-1.38592 z M 743.25362,369.53968 C 733.09476,366.36613 723.29029,357.45464 718.00653,346.59207 707.79027,325.58904 707.54784,287.27173 717.4998,266.5 c 4.11761,-8.59429 9.29521,-14.76006 15.94593,-18.9893 8.42591,-5.35809 14.28164,-6.78873 25.8938,-6.32623 8.91857,0.35522 10.97204,0.79629 16.80026,3.60859 12.61126,6.08533 21.76766,18.02706 25.98767,33.89299 2.88273,10.83817 3.71979,35.61023 1.58186,46.81395 -4.22888,22.16127 -15.96818,37.68905 -32.78795,43.36918 -7.3609,2.48581 -20.81316,2.81181 -27.66775,0.6705 z M 938,0 h 273 V 538 H 938 Z m 166.5,200.5 h -58 l -0.5089,217.5 h 59.0178 z m 0,-82 h -58 l -0.5327,53.5 h 59.0654 z M 1251,0 h 273 v 538 h -273 z m 178.7763,421.48294 c 8.5563,-1.62308 20.1587,-5.1132 21.6031,-6.49835 0.9115,-0.87417 -3.1715,-42.9041 -4.294,-44.20218 -0.3413,-0.39468 -4.1173,0.39282 -8.3911,1.75 -9.8619,3.13175 -18.8165,3.30013 -23.5045,0.44196 -6.4977,-3.96156 -6.4237,-3.24225 -6.9709,-67.72437 L 1407.7246,247 h 40.3123 L 1447.5,200.5 1408,199.95772 v -37.56219 c 0,-23.61831 -0.3571,-37.43846 -0.9621,-37.22886 L 1350.053,158.5 1350,200 h -26 v 47 h 26 l 0.01,57.75 c 0,31.7625 0.4613,62.86538 1.0147,69.11751 1.6107,18.19762 6.8701,31.0001 15.4115,37.515 4.6244,3.52713 14.5878,8.15555 21.5652,10.01787 7.5429,2.01327 31.3504,2.06033 41.7763,0.0826 z M 1564,0 h 273 v 538 h -273 z m 125.9271,421.51533 c 14.8532,-3.12447 30.5405,-11.0433 42.5513,-21.47962 l 4.9784,-4.32577 3.4346,11.14503 3.4345,11.14503 h 28.8371 c 15.8603,0 28.837,-0.21217 28.837,-0.47149 0,-0.25931 -1.1184,-3.00035 -2.4853,-6.0912 -1.3669,-3.09084 -3.5689,-9.06617 -4.8933,-13.27851 -4.6254,-14.71204 -5.1125,-22.62991 -4.8076,-78.1588 0.2981,-54.30498 -0.4024,-69.12134 -3.8708,-81.87542 -2.5794,-9.48491 -5.603,-14.54987 -12.7062,-21.28431 -16.1676,-15.32834 -35.5262,-20.86724 -73.0073,-20.88888 -25.0108,-0.0144 -38.2259,1.93658 -52.5547,7.75888 -18.5829,7.5509 -33.4889,24.69211 -41.208,47.3874 -1.7296,5.08529 -2.0504,7.11233 -1.1735,7.41546 2.0256,0.70025 48.1902,8.48687 50.3162,8.48687 1.3937,0 2.3888,-1.12202 3.326,-3.75 3.9087,-10.96098 12.4876,-19.08231 22.5319,-21.33012 6.1237,-1.37042 29.1577,-0.71786 34.6502,0.98166 10.129,3.13411 15.4838,11.11745 16.5265,24.63883 l 0.6167,7.99769 -6.3804,2.17902 c -10.2916,3.51476 -20.0026,5.91048 -43.4747,10.72532 -40.3205,8.27094 -53.9488,13.40748 -66.31,24.9926 -7.266,6.80973 -12.5741,15.23604 -15.7402,24.98659 -3.2928,10.14068 -3.7616,27.19207 -1.0298,37.45406 6.1075,22.94232 25.1175,40.38889 49.6743,45.58894 8.8989,1.8844 31.0762,1.91258 39.9271,0.0507 z M 1674.5,379.70249 c -7.3494,-3.5162 -11.0155,-7.0452 -14.442,-13.90228 -5.5295,-11.0656 -3.6277,-23.58078 4.6937,-30.88704 6.0311,-5.2954 8.7878,-6.20203 49.7483,-16.36145 7.7,-1.90982 15.0125,-3.76774 16.25,-4.1287 2.2211,-0.64786 2.2497,-0.53602 2.2242,8.71035 -0.048,17.33409 -1.6382,28.71327 -4.958,35.47163 -3.9059,7.95185 -11.0798,14.5734 -20.7862,19.18588 -7.0432,3.34694 -8.6184,3.7013 -17.73,3.98852 -8.8684,0.27957 -10.5658,0.0445 -15,-2.07691 z M 1877,0 h 272 v 538 h -272 z m 165.5,118.5 -57.5,-0.53067 V 418 h 58.0065 z"
         style="display:inline;fill:#ffffff;fill-opacity:1"
         id="path4166" /></g><g
       aria-label="-inated"
       transform="matrix(0.26458333,0,0,0.26458333,24.290634,-21.472113)"
       id="text12058"
       style="font-size:85.3333px;font-family:HelveticaNeue;-inkscape-font-specification:HelveticaNeue;text-align:center;letter-spacing:-3px;text-anchor:middle;white-space:pre;shape-inside:url(#rect12060);display:inline;fill:#ffffff;stroke-width:55.1811"><path
         d="m 218.50031,559.47052 v 8.78933 h 23.38132 v -8.78933 z"
         id="path15238" /><path
         d="m 244.68431,534.2972 h 8.87466 v -9.38667 h -8.87466 z m 0,53.75997 h 8.87466 v -46.42131 h -8.87466 z"
         style="font-family:'ITC Avant Garde Gothic Std';-inkscape-font-specification:'ITC Avant Garde Gothic Std'"
         id="path15240" /><path
         d="m 262.16428,588.05717 h 8.87467 v -25.85598 c 0,-8.02133 4.01066,-13.48267 12.71466,-13.568 9.04533,-0.0853 12.28799,5.888 12.28799,14.25066 v 25.17332 h 8.96 v -27.22132 c 0,-9.64266 -3.92533,-20.39466 -18.77333,-20.56532 -8.27733,-0.0853 -13.48266,3.75466 -15.70132,8.53333 v -7.168 h -8.36267 z"
         style="font-family:'ITC Avant Garde Gothic Std';-inkscape-font-specification:'ITC Avant Garde Gothic Std'"
         id="path15242" /><path
         d="m 360.71088,541.63586 h -8.87466 v 8.192 c -2.13334,-4.43733 -8.02133,-9.55733 -17.23733,-9.55733 -13.48266,0 -23.80799,10.41066 -23.80799,24.57599 0,12.97066 8.87466,24.57599 23.80799,24.57599 7.33866,0 13.99466,-3.24267 17.23733,-9.472 v 8.10666 h 8.87466 z m -41.04532,23.29599 c 0,-8.704 6.31467,-16.38399 16.04266,-16.38399 7.424,0 12.62933,4.18133 14.848,9.55733 1.024,2.13333 1.45066,4.52266 1.36533,6.91199 -0.0853,2.38934 -0.59733,4.77867 -1.62133,6.912 -2.304,5.29067 -7.33867,9.216 -14.42133,9.216 -11.264,0 -16.12799,-9.216 -16.21333,-16.128 z"
         style="font-family:'ITC Avant Garde Gothic Std';-inkscape-font-specification:'ITC Avant Garde Gothic Std'"
         id="path15244" /><path
         d="m 372.72954,588.05717 h 8.87466 v -39.50931 h 8.96 v -6.912 h -8.96 v -16.72533 h -8.87466 v 16.72533 h -8.36266 v 6.912 h 8.36266 z"
         style="font-family:'ITC Avant Garde Gothic Std';-inkscape-font-specification:'ITC Avant Garde Gothic Std'"
         id="path15246" /><path
         d="m 437.31349,567.66252 c 0.768,-7.76533 -1.536,-15.01866 -6.99733,-20.56533 -4.43733,-4.352 -10.496,-6.82666 -17.15199,-6.82666 -14.08,0 -24.49066,11.34933 -24.49066,24.66132 0,12.288 9.38666,24.49066 24.57599,24.49066 4.69333,0 9.30133,-1.28 13.22666,-3.92533 3.92533,-2.56 7.168,-6.4 9.38666,-11.52 h -9.21599 c -2.56,4.864 -7.168,7.85066 -13.39733,7.85066 -6.99733,0 -15.18933,-4.77866 -15.61599,-14.16532 z m -39.50932,-6.912 c 0.42667,-6.31466 6.31467,-12.88533 15.36,-12.88533 8.78933,-0.17067 14.93332,6.74133 15.35999,12.88533 z"
         style="font-family:'ITC Avant Garde Gothic Std';-inkscape-font-specification:'ITC Avant Garde Gothic Std'"
         id="path15248" /><path
         d="m 490.0362,524.91053 h -8.87466 v 16.128 8.19199 c -1.87733,-3.66933 -7.68,-8.95999 -17.15199,-8.95999 -13.22667,0 -23.63733,10.06933 -23.63733,24.49065 0,13.39733 9.216,24.66133 23.80799,24.66133 9.55733,0 14.76266,-4.69333 17.32266,-9.472 v 8.10666 h 8.53333 z m -40.78931,39.85065 c 0,-8.70399 6.48533,-16.21332 16.29865,-16.21332 4.52267,0 8.53333,1.70666 11.43467,4.608 2.90133,2.81599 4.69333,6.82666 4.69333,11.43466 0.17066,4.608 -1.536,8.70399 -4.52267,11.69066 -2.90133,2.98666 -7.08266,4.864 -11.60533,4.864 -10.23999,0 -16.21332,-7.76533 -16.29865,-16.29866 z"
         style="font-family:'ITC Avant Garde Gothic Std';-inkscape-font-specification:'ITC Avant Garde Gothic Std'"
         id="path15250" /></g><g
       aria-label="i've been"
       id="text13670"
       style="font-size:22.5778px;font-family:'ITC Avant Garde Gothic Std';-inkscape-font-specification:'ITC Avant Garde Gothic Std';text-align:center;letter-spacing:-0.79375px;text-anchor:middle;fill:#ffffff;stroke-width:14.6"><path
         d="m 51.605002,93.849693 h 2.348091 v -2.483558 h -2.348091 z m 0,14.224017 h 2.348091 V 95.791384 h -2.348091 z"
         id="path15253" /><path
         d="m 58.239343,98.049164 v -6.683029 h -1.828802 v 6.683029 z"
         id="path15255" /><path
         d="m 71.150314,95.791384 h -2.460981 l -3.409248,9.347206 -3.409247,-9.347206 h -2.460981 l 4.696183,12.282326 h 2.348091 z"
         id="path15257" /><path
         d="m 83.51942,102.67761 c 0.2032,-2.05458 -0.4064,-3.97369 -1.851379,-5.441247 -1.174046,-1.151468 -2.77707,-1.806224 -4.538138,-1.806224 -3.725338,0 -6.479829,3.002848 -6.479829,6.524981 0,3.25121 2.483558,6.47983 6.502406,6.47983 1.241779,0 2.460981,-0.33866 3.499559,-1.03858 1.038579,-0.67733 1.896536,-1.69333 2.483559,-3.048 h -2.438403 c -0.677334,1.28694 -1.896535,2.07716 -3.544715,2.07716 -1.851379,0 -4.018848,-1.26436 -4.131737,-3.74792 z m -10.453522,-1.8288 c 0.112889,-1.670756 1.670758,-3.409247 4.064005,-3.409247 2.325513,-0.04516 3.951115,1.783647 4.064004,3.409247 z"
         id="path15259" /><path
         d="m 90.895327,108.07371 h 2.25778 v -2.12232 c 0.790223,1.46756 2.415825,2.48356 4.51556,2.48356 3.522133,0 6.321783,-2.59644 6.321783,-6.54756 0,-4.086582 -3.048,-6.457251 -6.231472,-6.457251 -1.580446,0.02258 -3.38667,0.72249 -4.51556,2.325514 v -1.941691 -4.447827 h -2.348091 z m 10.747033,-6.14116 c -0.0226,2.12231 -1.51271,4.31236 -4.31236,4.31236 -2.506136,0 -4.176893,-1.98685 -4.176893,-4.33494 0,-2.325516 1.715913,-4.289784 4.244626,-4.289784 2.415825,0 4.244627,1.896535 4.244627,4.289784 z"
         id="path15261" /><path
         d="m 117.55618,102.67761 c 0.2032,-2.05458 -0.4064,-3.97369 -1.85138,-5.441247 -1.17404,-1.151468 -2.77707,-1.806224 -4.53814,-1.806224 -3.72533,0 -6.47983,3.002848 -6.47983,6.524981 0,3.25121 2.48356,6.47983 6.50241,6.47983 1.24178,0 2.46098,-0.33866 3.49956,-1.03858 1.03858,-0.67733 1.89654,-1.69333 2.48356,-3.048 h -2.4384 c -0.67734,1.28694 -1.89654,2.07716 -3.54472,2.07716 -1.85138,0 -4.01885,-1.26436 -4.13174,-3.74792 z m -10.45352,-1.8288 c 0.11289,-1.670756 1.67076,-3.409247 4.064,-3.409247 2.32552,-0.04516 3.95112,1.783647 4.06401,3.409247 z"
         id="path15263" /><path
         d="m 131.07677,102.67761 c 0.2032,-2.05458 -0.4064,-3.97369 -1.85138,-5.441247 -1.17404,-1.151468 -2.77707,-1.806224 -4.53814,-1.806224 -3.72533,0 -6.47982,3.002848 -6.47982,6.524981 0,3.25121 2.48355,6.47983 6.5024,6.47983 1.24178,0 2.46098,-0.33866 3.49956,-1.03858 1.03858,-0.67733 1.89654,-1.69333 2.48356,-3.048 h -2.4384 c -0.67734,1.28694 -1.89654,2.07716 -3.54472,2.07716 -1.85138,0 -4.01885,-1.26436 -4.13174,-3.74792 z m -10.45352,-1.8288 c 0.11289,-1.670756 1.67076,-3.409247 4.064,-3.409247 2.32552,-0.04516 3.95112,1.783647 4.06401,3.409247 z"
         id="path15265" /><path
         d="m 132.58598,108.07371 h 2.34809 v -6.84108 c 0,-2.122309 1.06116,-3.567289 3.3641,-3.589866 2.39324,-0.02258 3.2512,1.557868 3.2512,3.770496 v 6.66045 h 2.37067 v -7.20232 c 0,-2.551292 -1.03858,-5.396095 -4.96712,-5.441251 -2.19005,-0.02258 -3.56729,0.993423 -4.15431,2.25778 v -1.896535 h -2.21263 z"
         id="path15267" /></g><g
       aria-label="VAX-11/VMS TEAM"
       transform="translate(-0.21864197,-4.249561)"
       id="text14274"
       style="font-size:14.1111px;font-family:'ITC Avant Garde Gothic Std';-inkscape-font-specification:'ITC Avant Garde Gothic Std';text-align:center;letter-spacing:1.32292px;text-anchor:middle;fill:#ffffff;stroke-width:14.6"><path
         d="m 37.642146,163.71287 0.962096,1.3417 10.780218,-2.8856 -1.003211,-1.39904 -8.602616,2.4354 5.074934,-7.35498 -1.003211,-1.39904 z"
         id="path15103" /><path
         d="m 44.729803,168.64635 3.089331,3.21553 -1.096411,2.42317 1.251374,1.3025 4.606923,-10.27706 -1.046071,-1.08881 -10.502069,4.14108 1.251374,1.3025 z m 3.743183,1.96115 -2.463643,-2.56428 4.61057,-1.98356 z"
         id="path15105" /><path
         d="m 49.182861,176.62639 1.465848,1.12626 4.702648,-1.7432 -0.417001,5.03598 1.499417,1.15204 0.44801,-6.48916 5.667847,-1.98034 -1.488227,-1.14345 -4.186545,1.53469 0.393244,-4.44919 -1.499417,-1.15204 -0.402694,5.99012 z"
         id="path15107" /><path
         d="m 60.186259,178.87567 -0.756517,1.24104 3.301406,2.01249 0.756517,-1.24104 z"
         id="path15109" /><path
         d="m 65.283815,187.16227 1.501727,0.71931 4.510922,-9.41761 -3.283438,-1.57273 -0.609584,1.27265 1.78171,0.85342 z"
         id="path15111" /><path
         d="m 74.200872,190.82993 1.583089,0.51616 3.23693,-9.92785 -3.46133,-1.12855 -0.437423,1.3416 1.878241,0.6124 z"
         id="path15113" /><path
         d="m 80.806463,194.21711 1.622319,0.3064 6.401146,-10.85394 -1.622319,-0.30639 z"
         id="path15115" /><path
         d="m 93.240864,194.53287 1.648993,0.0814 4.446855,-10.23549 -1.719462,-0.0848 -3.444696,8.25047 -2.60161,-8.54882 -1.719462,-0.0849 z"
         id="path15117" /><path
         d="m 102.88032,194.59762 -1.11075,-8.73509 4.50039,8.32062 1.07852,-0.13188 2.36294,-9.15984 1.0267,8.74537 1.52674,-0.18669 -1.2674,-10.36501 -2.25509,0.27574 -2.19816,8.41467 -4.20294,-7.63196 -2.2691,0.27746 1.26741,10.36501 z"
         id="path15119" /><path
         d="m 114.15246,189.75203 c 0.58634,1.93103 2.21278,2.78369 4.20587,2.20882 2.14222,-0.61788 2.83375,-2.34471 2.36447,-3.97172 -0.46927,-1.627 -1.81909,-1.92794 -3.21898,-2.09694 -1.78552,-0.1312 -2.60162,-0.16017 -2.88319,-1.13637 -0.24636,-0.85418 0.29834,-1.61343 1.11184,-1.84807 1.15246,-0.3324 1.6468,0.46495 1.91169,0.976 l 1.57277,-0.45363 c -0.71644,-2.02569 -2.53324,-2.26536 -3.82129,-1.89385 -1.57277,0.45363 -2.87937,1.93197 -2.32614,3.79912 0.54357,1.88461 2.46076,1.96315 3.32145,1.99395 1.42492,0.10303 2.44831,0.0869 2.76898,1.19869 0.25811,0.89485 -0.31137,1.82279 -1.20623,2.08089 -0.52877,0.15252 -1.67236,0.15926 -2.21491,-1.31443 z"
         id="path15121" /><path
         d="m 129.44796,187.54617 1.49547,-0.73224 -3.94667,-8.0603 2.15448,-1.05492 -0.64537,-1.31804 -5.80443,2.8421 0.64537,1.31804 2.15448,-1.05493 z"
         id="path15123" /><path
         d="m 135.21409,184.53807 4.91849,-3.15235 -0.79189,-1.23556 -3.51661,2.25385 -1.66754,-2.60181 3.46908,-2.2234 -0.78428,-1.22368 -3.46908,2.22339 -1.59902,-2.49489 3.51661,-2.25385 -0.7919,-1.23556 -4.9185,3.15234 z"
         id="path15125" /><path
         d="m 142.4581,176.51825 3.38736,-2.8999 2.35632,1.23353 1.37209,-1.17465 -9.99603,-5.18853 -1.14699,0.98193 3.53218,10.72221 1.3721,-1.17465 z m 2.17253,-3.62459 -2.70132,2.31258 -1.71597,-4.71671 z"
         id="path15127" /><path
         d="m 152.31443,170.75166 -6.82745,-5.56071 8.99669,2.92331 0.69021,-0.83917 -4.60443,-8.26349 6.77367,5.62609 0.97705,-1.18792 -8.06477,-6.6332 -1.44317,1.75464 4.20997,7.61017 -8.30642,-2.62963 -1.45213,1.76553 8.06477,6.6332 z"
         id="path15129" /></g></g></svg>
